Changing Variables
…
**Goal**: 

Create a new variable called `age_months` that represents `age` in months.

---

```r
arthritis %>% 
  mutate(age_months = age*12)
```

```
## # A tibble: 530 × 6
##      age age_gp  sex    yrs_from_dx  cdai age_months
##    <dbl> <fct>   <fct>        <dbl> <dbl>      <dbl>
##  1    85 elderly female          27  NA         1020
##  2    86 elderly female          27  23         1032
##  3    83 elderly female          10  14.5        996
##  4    83 elderly female           9  NA          996
##  5    85 elderly female          NA  NA         1020
##  6    79 elderly male            NA  NA          948
##  7    90 elderly female          51  NA         1080
##  8    90 elderly female          11  40         1080
##  9    87 elderly female          36   6         1044
## 10    82 elderly female           4  NA          984
## # … with 520 more rows
```
…
---

```r
arthritis %>% 
  mutate(cdai_level = case_when(
    cdai <=2.8 ~ "Remission", 
    cdai > 2.8 & cdai <= 10 ~ "Low",
    cdai > 10 & cdai <=22  ~ "Moderate",
    cdai > 22 ~ "High")) 
```

```
## # A tibble: 530 × 6
##      age age_gp  sex    yrs_from_dx  cdai cdai_level
##    <dbl> <fct>   <fct>        <dbl> <dbl> <chr>     
##  1    85 elderly female          27  NA   <NA>      
##  2    86 elderly female          27  23   High      
##  3    83 elderly female          10  14.5 Moderate  
##  4    83 elderly female           9  NA   <NA>      
##  5    85 elderly female          NA  NA   <NA>      
##  6    79 elderly male            NA  NA   <NA>      
##  7    90 elderly female          51  NA   <NA>      
##  8    90 elderly female          11  40   High      
##  9    87 elderly female          36   6   Low       
## 10    82 elderly female           4  NA   <NA>      
## # … with 520 more rows
```
…
**Goal**: 

Make `cdai_level` a factor and `age` an integer. 

---

```r
arthritis %>% 
  mutate(cdai_level = as.factor(cdai_level),
         age = as.integer(age)) 
```

```
## # A tibble: 530 × 6
##      age age_gp  sex    yrs_from_dx  cdai cdai_level
##    <int> <fct>   <fct>        <dbl> <dbl> <fct>     
##  1    85 elderly female          27  NA   <NA>      
##  2    86 elderly female          27  23   High      
##  3    83 elderly female          10  14.5 Moderate  
##  4    83 elderly female           9  NA   <NA>      
##  5    85 elderly female          NA  NA   <NA>      
##  6    79 elderly male            NA  NA   <NA>      
##  7    90 elderly female          51  NA   <NA>      
##  8    90 elderly female          11  40   High      
##  9    87 elderly female          36   6   Low       
## 10    82 elderly female           4  NA   <NA>      
## # … with 520 more rows
```
…
